.github/outputs/wave.vcd
$version Generated by VerilatedVcd $end
$timescale 1ps $end
 $scope module TOP $end
  $scope module tb $end
   $var wire 1 # a $end
   $var wire 1 $ b $end
   $var wire 1 % and_o $end
   $var wire 1 & xor_o $end
   $var wire 3 ' and_or_xor [2:0] $end
   $scope module uut $end
    $var wire 1 # a $end
    $var wire 1 $ b $end
    $var wire 1 % and_o $end
    $var wire 1 & xor_o $end
    $var wire 3 ' and_or_xor [2:0] $end
   $upscope $end
  $upscope $end
 $upscope $end
$enddefinitions $end


#0
0#
0$
0%
0&
b000 '
#10000
1$
1&
b011 '
#20000
1#
0$
#30000
1$
1%
0&
b110 '
#40000
0#
0$
0%
b000 '
#50000
1$
1&
b011 '
#60000
1#
0$
#70000
1$
1%
0&
b110 '
